Baggage Drop - Verilog/tester/run/test_display_and_drop/tester.log
********************************************************************************
**** Running test test_display_and_drop...
********************************************************************************
ISim P.20131013 (signature 0x7708f090)
WARNING: A WEBPACK license was found.
WARNING: Please use Xilinx License Configuration Manager to check out a full ISim license.
WARNING: ISim will run in Lite mode. Please refer to the ISim documentation for more information on the differences between the Lite and the Full version.
This is a Lite version of ISim.
Time resolution is 1 ps
Simulator is doing circuit initialization process.
Finished circuit initialization process.
testing: T_act = 73.17, T_lim = 214.80, drop_en = 1, -> result: message = DROP, drop_activated = 1	ok
testing: T_act = 255.16, T_lim = 255.39, drop_en = 1, -> result: message = DROP, drop_activated = 1	ok
testing: T_act = 186.52, T_lim = 218.45, drop_en = 1, -> result: message = DROP, drop_activated = 1	ok
testing: T_act = 153.61, T_lim = 207.71, drop_en = 1, -> result: message = DROP, drop_activated = 1	ok
testing: T_act = 50.73, T_lim = 94.49, drop_en = 1, -> result: message = DROP, drop_activated = 1	ok
testing: T_act = 191.98, T_lim = 206.54, drop_en = 1, -> result: message = DROP, drop_activated = 1	ok
testing: T_act = 248.56, T_lim = 254.15, drop_en = 1, -> result: message = DROP, drop_activated = 1	ok
testing: T_act = 140.51, T_lim = 197.63, drop_en = 1, -> result: message = DROP, drop_activated = 1	ok
testing: T_act = 78.67, T_lim = 211.16, drop_en = 1, -> result: message = DROP, drop_activated = 1	ok
testing: T_act = 86.40, T_lim = 107.98, drop_en = 1, -> result: message = DROP, drop_activated = 1	ok
testing: T_act = 22.45, T_lim = 47.80, drop_en = 1, -> result: message = DROP, drop_activated = 1	ok
testing: T_act = 127.92, T_lim = 143.25, drop_en = 1, -> result: message = DROP, drop_activated = 1	ok
testing: T_act = 39.91, T_lim = 241.57, drop_en = 1, -> result: message = DROP, drop_activated = 1	ok
testing: T_act = 45.32, T_lim = 181.82, drop_en = 1, -> result: message = DROP, drop_activated = 1	ok
testing: T_act = 120.37, T_lim = 207.48, drop_en = 1, -> result: message = DROP, drop_activated = 1	ok
testing: T_act = 91.63, T_lim = 94.73, drop_en = 1, -> result: message = DROP, drop_activated = 1	ok
testing: T_act = 135.41, T_lim = 151.04, drop_en = 1, -> result: message = DROP, drop_activated = 1	ok
testing: T_act = 189.61, T_lim = 216.89, drop_en = 1, -> result: message = DROP, drop_activated = 1	ok
testing: T_act = 28.35, T_lim = 222.81, drop_en = 1, -> result: message = DROP, drop_activated = 1	ok
testing: T_act = 147.49, T_lim = 214.43, drop_en = 1, -> result: message = DROP, drop_activated = 1	ok
testing: T_act = 228.86, T_lim = 232.54, drop_en = 1, -> result: message = DROP, drop_activated = 1	ok
testing: T_act = 165.70, T_lim = 179.07, drop_en = 1, -> result: message = DROP, drop_activated = 1	ok
testing: T_act = 10.98, T_lim = 106.09, drop_en = 1, -> result: message = DROP, drop_activated = 1	ok
testing: T_act = 34.46, T_lim = 142.49, drop_en = 1, -> result: message = DROP, drop_activated = 1	ok
testing: T_act = 244.08, T_lim = 247.26, drop_en = 1, -> result: message = DROP, drop_activated = 1	ok
testing: T_act = 115.91, T_lim = 166.65, drop_en = 1, -> result: message = DROP, drop_activated = 1	ok
testing: T_act = 150.43, T_lim = 238.56, drop_en = 1, -> result: message = DROP, drop_activated = 1	ok
testing: T_act = 145.60, T_lim = 163.52, drop_en = 1, -> result: message = DROP, drop_activated = 1	ok
testing: T_act = 18.08, T_lim = 23.86, drop_en = 1, -> result: message = DROP, drop_activated = 1	ok
testing: T_act = 85.02, T_lim = 241.69, drop_en = 1, -> result: message = DROP, drop_activated = 1	ok
testing: T_act = 17.23, T_lim = 120.09, drop_en = 1, -> result: message = DROP, drop_activated = 1	ok
testing: T_act = 121.26, T_lim = 210.56, drop_en = 1, -> result: message = DROP, drop_activated = 1	ok
testing: T_act = 87.26, T_lim = 178.07, drop_en = 1, -> result: message = DROP, drop_activated = 1	ok
testing: T_act = 41.54, T_lim = 221.96, drop_en = 1, -> result: message = DROP, drop_activated = 1	ok
testing: T_act = 226.36, T_lim = 247.02, drop_en = 1, -> result: message = DROP, drop_activated = 1	ok
testing: T_act = 97.87, T_lim = 205.13, drop_en = 1, -> result: message = DROP, drop_activated = 1	ok
testing: T_act = 241.96, T_lim = 243.18, drop_en = 1, -> result: message = DROP, drop_activated = 1	ok
testing: T_act = 243.88, T_lim = 247.32, drop_en = 1, -> result: message = DROP, drop_activated = 1	ok
testing: T_act = 6.96, T_lim = 155.83, drop_en = 1, -> result: message = DROP, drop_activated = 1	ok
testing: T_act = 1.30, T_lim = 65.45, drop_en = 1, -> result: message = DROP, drop_activated = 1	ok
testing: T_act = 56.42, T_lim = 132.02, drop_en = 1, -> result: message = DROP, drop_activated = 1	ok
testing: T_act = 49.81, T_lim = 254.46, drop_en = 1, -> result: message = DROP, drop_activated = 1	ok
testing: T_act = 52.36, T_lim = 148.96, drop_en = 1, -> result: message = DROP, drop_activated = 1	ok
testing: T_act = 61.47, T_lim = 101.74, drop_en = 1, -> result: message = DROP, drop_activated = 1	ok
testing: T_act = 168.43, T_lim = 223.77, drop_en = 1, -> result: message = DROP, drop_activated = 1	ok
testing: T_act = 19.71, T_lim = 36.56, drop_en = 1, -> result: message = DROP, drop_activated = 1	ok
testing: T_act = 190.27, T_lim = 217.61, drop_en = 1, -> result: message = DROP, drop_activated = 1	ok
testing: T_act = 126.98, T_lim = 176.54, drop_en = 1, -> result: message = DROP, drop_activated = 1	ok
testing: T_act = 55.90, T_lim = 194.02, drop_en = 1, -> result: message = DROP, drop_activated = 1	ok
testing: T_act = 56.20, T_lim = 69.79, drop_en = 1, -> result: message = DROP, drop_activated = 1	ok
testing: T_act = 244.64, T_lim = 247.06, drop_en = 1, -> result: message = DROP, drop_activated = 1	ok
testing: T_act = 93.45, T_lim = 230.21, drop_en = 1, -> result: message = DROP, drop_activated = 1	ok
testing: T_act = 122.67, T_lim = 184.77, drop_en = 1, -> result: message = DROP, drop_activated = 1	ok
testing: T_act = 155.65, T_lim = 241.53, drop_en = 1, -> result: message = DROP, drop_activated = 1	ok
testing: T_act = 198.64, T_lim = 222.98, drop_en = 1, -> result: message = DROP, drop_activated = 1	ok
testing: T_act = 81.73, T_lim = 120.10, drop_en = 1, -> result: message = DROP, drop_activated = 1	ok
testing: T_act = 110.00, T_lim = 137.29, drop_en = 1, -> result: message = DROP, drop_activated = 1	ok
testing: T_act = 254.43, T_lim = 255.03, drop_en = 1, -> result: message = DROP, drop_activated = 1	ok
testing: T_act = 206.24, T_lim = 234.05, drop_en = 1, -> result: message = DROP, drop_activated = 1	ok
testing: T_act = 152.52, T_lim = 160.71, drop_en = 1, -> result: message = DROP, drop_activated = 1	ok
testing: T_act = 52.93, T_lim = 251.73, drop_en = 1, -> result: message = DROP, drop_activated = 1	ok
testing: T_act = 140.96, T_lim = 192.35, drop_en = 1, -> result: message = DROP, drop_activated = 1	ok
testing: T_act = 177.80, T_lim = 248.89, drop_en = 1, -> result: message = DROP, drop_activated = 1	ok
testing: T_act = 134.48, T_lim = 150.38, drop_en = 1, -> result: message = DROP, drop_activated = 1	ok
testing: T_act = 51.34, T_lim = 255.76, drop_en = 1, -> result: message = DROP, drop_activated = 1	ok
testing: T_act = 154.30, T_lim = 232.77, drop_en = 1, -> result: message = DROP, drop_activated = 1	ok
testing: T_act = 198.77, T_lim = 245.88, drop_en = 1, -> result: message = DROP, drop_activated = 1	ok
testing: T_act = 66.66, T_lim = 146.62, drop_en = 1, -> result: message = DROP, drop_activated = 1	ok
testing: T_act = 154.87, T_lim = 223.63, drop_en = 1, -> result: message = DROP, drop_activated = 1	ok
testing: T_act = 183.17, T_lim = 238.81, drop_en = 1, -> result: message = DROP, drop_activated = 1	ok
testing: T_act = 188.08, T_lim = 189.28, drop_en = 1, -> result: message = DROP, drop_activated = 1	ok
testing: T_act = 32.36, T_lim = 202.02, drop_en = 1, -> result: message = DROP, drop_activated = 1	ok
testing: T_act = 229.10, T_lim = 244.16, drop_en = 1, -> result: message = DROP, drop_activated = 1	ok
testing: T_act = 118.18, T_lim = 163.66, drop_en = 1, -> result: message = DROP, drop_activated = 1	ok
testing: T_act = 46.96, T_lim = 204.75, drop_en = 1, -> result: message = DROP, drop_activated = 1	ok
testing: T_act = 202.14, T_lim = 239.08, drop_en = 1, -> result: message = DROP, drop_activated = 1	ok
testing: T_act = 64.87, T_lim = 137.90, drop_en = 1, -> result: message = DROP, drop_activated = 1	ok
testing: T_act = 214.29, T_lim = 236.59, drop_en = 1, -> result: message = DROP, drop_activated = 1	ok
testing: T_act = 103.70, T_lim = 196.13, drop_en = 1, -> result: message = DROP, drop_activated = 1	ok
testing: T_act = 206.14, T_lim = 206.88, drop_en = 1, -> result: message = DROP, drop_activated = 1	ok
testing: T_act = 199.01, T_lim = 228.79, drop_en = 1, -> result: message = DROP, drop_activated = 1	ok
testing: T_act = 186.26, T_lim = 188.06, drop_en = 1, -> result: message = DROP, drop_activated = 1	ok
testing: T_act = 169.19, T_lim = 175.68, drop_en = 1, -> result: message = DROP, drop_activated = 1	ok
testing: T_act = 119.48, T_lim = 145.29, drop_en = 1, -> result: message = DROP, drop_activated = 1	ok
testing: T_act = 49.42, T_lim = 52.54, drop_en = 1, -> result: message = DROP, drop_activated = 1	ok
testing: T_act = 219.43, T_lim = 238.83, drop_en = 1, -> result: message = DROP, drop_activated = 1	ok
testing: T_act = 1.18, T_lim = 110.75, drop_en = 1, -> result: message = DROP, drop_activated = 1	ok
testing: T_act = 99.79, T_lim = 147.81, drop_en = 1, -> result: message = DROP, drop_activated = 1	ok
testing: T_act = 138.95, T_lim = 202.78, drop_en = 1, -> result: message = DROP, drop_activated = 1	ok
testing: T_act = 32.61, T_lim = 124.73, drop_en = 1, -> result: message = DROP, drop_activated = 1	ok
testing: T_act = 13.44, T_lim = 29.67, drop_en = 1, -> result: message = DROP, drop_activated = 1	ok
testing: T_act = 62.53, T_lim = 246.49, drop_en = 1, -> result: message = DROP, drop_activated = 1	ok
testing: T_act = 217.32, T_lim = 254.11, drop_en = 1, -> result: message = DROP, drop_activated = 1	ok
testing: T_act = 221.66, T_lim = 248.14, drop_en = 1, -> result: message = DROP, drop_activated = 1	ok
testing: T_act = 22.30, T_lim = 176.64, drop_en = 1, -> result: message = DROP, drop_activated = 1	ok
testing: T_act = 10.72, T_lim = 44.69, drop_en = 1, -> result: message = DROP, drop_activated = 1	ok
testing: T_act = 181.46, T_lim = 245.93, drop_en = 1, -> result: message = DROP, drop_activated = 1	ok
testing: T_act = 83.43, T_lim = 165.08, drop_en = 1, -> result: message = DROP, drop_activated = 1	ok
testing: T_act = 156.51, T_lim = 248.52, drop_en = 1, -> result: message = DROP, drop_activated = 1	ok
testing: T_act = 174.56, T_lim = 240.50, drop_en = 1, -> result: message = DROP, drop_activated = 1	ok
testing: T_act = 114.96, T_lim = 232.17, drop_en = 1, -> result: message = DROP, drop_activated = 1	ok
testing: T_act = 99.73, T_lim = 139.07, drop_en = 1, -> result: message = DROP, drop_activated = 1	ok
testing: T_act = 175.08, T_lim = 191.09, drop_en = 1, -> result: message = DROP, drop_activated = 1	ok
testing: T_act = 154.37, T_lim = 182.80, drop_en = 1, -> result: message = DROP, drop_activated = 1	ok
testing: T_act = 251.93, T_lim = 252.32, drop_en = 1, -> result: message = DROP, drop_activated = 1	ok
testing: T_act = 233.08, T_lim = 250.42, drop_en = 1, -> result: message = DROP, drop_activated = 1	ok
testing: T_act = 217.54, T_lim = 254.11, drop_en = 1, -> result: message = DROP, drop_activated = 1	ok
testing: T_act = 222.17, T_lim = 236.33, drop_en = 1, -> result: message = DROP, drop_activated = 1	ok
testing: T_act = 198.32, T_lim = 209.53, drop_en = 1, -> result: message = DROP, drop_activated = 1	ok
testing: T_act = 116.50, T_lim = 222.18, drop_en = 1, -> result: message = DROP, drop_activated = 1	ok
testing: T_act = 104.01, T_lim = 209.08, drop_en = 1, -> result: message = DROP, drop_activated = 1	ok
testing: T_act = 88.08, T_lim = 250.50, drop_en = 1, -> result: message = DROP, drop_activated = 1	ok
testing: T_act = 100.61, T_lim = 131.86, drop_en = 1, -> result: message = DROP, drop_activated = 1	ok
testing: T_act = 137.07, T_lim = 165.51, drop_en = 1, -> result: message = DROP, drop_activated = 1	ok
testing: T_act = 85.18, T_lim = 230.42, drop_en = 1, -> result: message = DROP, drop_activated = 1	ok
testing: T_act = 245.89, T_lim = 254.05, drop_en = 1, -> result: message = DROP, drop_activated = 1	ok
testing: T_act = 166.55, T_lim = 250.56, drop_en = 1, -> result: message = DROP, drop_activated = 1	ok
testing: T_act = 39.40, T_lim = 114.54, drop_en = 1, -> result: message = DROP, drop_activated = 1	ok
testing: T_act = 236.38, T_lim = 244.50, drop_en = 1, -> result: message = DROP, drop_activated = 1	ok
testing: T_act = 82.35, T_lim = 215.85, drop_en = 1, -> result: message = DROP, drop_activated = 1	ok
testing: T_act = 41.18, T_lim = 136.05, drop_en = 1, -> result: message = DROP, drop_activated = 1	ok
testing: T_act = 210.02, T_lim = 219.17, drop_en = 1, -> result: message = DROP, drop_activated = 1	ok
testing: T_act = 152.90, T_lim = 193.54, drop_en = 1, -> result: message = DROP, drop_activated = 1	ok
testing: T_act = 75.87, T_lim = 198.29, drop_en = 1, -> result: message = DROP, drop_activated = 1	ok
testing: T_act = 149.43, T_lim = 188.64, drop_en = 1, -> result: message = DROP, drop_activated = 1	ok
testing: T_act = 115.72, T_lim = 156.25, drop_en = 1, -> result: message = DROP, drop_activated = 1	ok
testing: T_act = 165.28, T_lim = 217.64, drop_en = 1, -> result: message = DROP, drop_activated = 1	ok
testing: T_act = 125.65, T_lim = 186.98, drop_en = 1, -> result: message = DROP, drop_activated = 1	ok
testing: T_act = 158.90, T_lim = 175.42, drop_en = 1, -> result: message = DROP, drop_activated = 1	ok
testing: T_act = 31.55, T_lim = 35.23, drop_en = 1, -> result: message = DROP, drop_activated = 1	ok
testing: T_act = 156.00, T_lim = 215.21, drop_en = 1, -> result: message = DROP, drop_activated = 1	ok
testing: T_act = 255.32, T_lim = 255.76, drop_en = 1, -> result: message = DROP, drop_activated = 1	ok
testing: T_act = 57.88, T_lim = 196.96, drop_en = 1, -> result: message = DROP, drop_activated = 1	ok
testing: T_act = 99.89, T_lim = 216.07, drop_en = 1, -> result: message = DROP, drop_activated = 1	ok
testing: T_act = 88.82, T_lim = 97.13, drop_en = 1, -> result: message = DROP, drop_activated = 1	ok
testing: T_act = 89.20, T_lim = 189.72, drop_en = 1, -> result: message = DROP, drop_activated = 1	ok
testing: T_act = 244.56, T_lim = 253.45, drop_en = 1, -> result: message = DROP, drop_activated = 1	ok
testing: T_act = 118.55, T_lim = 253.23, drop_en = 1, -> result: message = DROP, drop_activated = 1	ok
testing: T_act = 211.98, T_lim = 215.23, drop_en = 1, -> result: message = DROP, drop_activated = 1	ok
testing: T_act = 41.24, T_lim = 223.71, drop_en = 1, -> result: message = DROP, drop_activated = 1	ok
testing: T_act = 39.86, T_lim = 243.11, drop_en = 1, -> result: message = DROP, drop_activated = 1	ok
testing: T_act = 114.80, T_lim = 202.80, drop_en = 1, -> result: message = DROP, drop_activated = 1	ok
testing: T_act = 36.63, T_lim = 118.00, drop_en = 1, -> result: message = DROP, drop_activated = 1	ok
testing: T_act = 26.46, T_lim = 240.83, drop_en = 1, -> result: message = DROP, drop_activated = 1	ok
testing: T_act = 126.50, T_lim = 184.98, drop_en = 1, -> result: message = DROP, drop_activated = 1	ok
testing: T_act = 22.63, T_lim = 86.19, drop_en = 1, -> result: message = DROP, drop_activated = 1	ok
testing: T_act = 211.80, T_lim = 219.79, drop_en = 1, -> result: message = DROP, drop_activated = 1	ok
testing: T_act = 238.35, T_lim = 254.17, drop_en = 1, -> result: message = DROP, drop_activated = 1	ok
testing: T_act = 192.51, T_lim = 242.54, drop_en = 1, -> result: message = DROP, drop_activated = 1	ok
testing: T_act = 188.55, T_lim = 193.75, drop_en = 1, -> result: message = DROP, drop_activated = 1	ok
testing: T_act = 214.18, T_lim = 226.74, drop_en = 1, -> result: message = DROP, drop_activated = 1	ok
testing: T_act = 167.19, T_lim = 176.09, drop_en = 1, -> result: message = DROP, drop_activated = 1	ok
testing: T_act = 22.35, T_lim = 129.32, drop_en = 1, -> result: message = DROP, drop_activated = 1	ok
testing: T_act = 72.32, T_lim = 221.33, drop_en = 1, -> result: message = DROP, drop_activated = 1	ok
testing: T_act = 123.99, T_lim = 200.13, drop_en = 1, -> result: message = DROP, drop_activated = 1	ok
testing: T_act = 204.88, T_lim = 242.00, drop_en = 1, -> result: message = DROP, drop_activated = 1	ok
testing: T_act = 130.47, T_lim = 239.18, drop_en = 1, -> result: message = DROP, drop_activated = 1	ok
testing: T_act = 36.09, T_lim = 82.71, drop_en = 1, -> result: message = DROP, drop_activated = 1	ok
testing: T_act = 226.25, T_lim = 231.64, drop_en = 1, -> result: message = DROP, drop_activated = 1	ok
testing: T_act = 202.57, T_lim = 208.40, drop_en = 1, -> result: message = DROP, drop_activated = 1	ok
testing: T_act = 45.88, T_lim = 252.82, drop_en = 1, -> result: message = DROP, drop_activated = 1	ok
testing: T_act = 136.05, T_lim = 159.23, drop_en = 1, -> result: message = DROP, drop_activated = 1	ok
testing: T_act = 21.07, T_lim = 135.48, drop_en = 1, -> result: message = DROP, drop_activated = 1	ok
testing: T_act = 11.32, T_lim = 158.25, drop_en = 1, -> result: message = DROP, drop_activated = 1	ok
testing: T_act = 4.32, T_lim = 250.89, drop_en = 1, -> result: message = DROP, drop_activated = 1	ok
testing: T_act = 207.59, T_lim = 234.56, drop_en = 1, -> result: message = DROP, drop_activated = 1	ok
testing: T_act = 118.43, T_lim = 189.52, drop_en = 1, -> result: message = DROP, drop_activated = 1	ok
testing: T_act = 43.81, T_lim = 101.30, drop_en = 1, -> result: message = DROP, drop_activated = 1	ok
testing: T_act = 187.45, T_lim = 214.33, drop_en = 1, -> result: message = DROP, drop_activated = 1	ok
testing: T_act = 122.99, T_lim = 187.81, drop_en = 1, -> result: message = DROP, drop_activated = 1	ok
testing: T_act = 75.67, T_lim = 222.88, drop_en = 1, -> result: message = DROP, drop_activated = 1	ok
testing: T_act = 225.78, T_lim = 226.68, drop_en = 1, -> result: message = DROP, drop_activated = 1	ok
testing: T_act = 42.95, T_lim = 72.82, drop_en = 1, -> result: message = DROP, drop_activated = 1	ok
testing: T_act = 72.97, T_lim = 131.98, drop_en = 1, -> result: message = DROP, drop_activated = 1	ok
testing: T_act = 126.35, T_lim = 197.41, drop_en = 1, -> result: message = DROP, drop_activated = 1	ok
testing: T_act = 196.91, T_lim = 205.61, drop_en = 1, -> result: message = DROP, drop_activated = 1	ok
testing: T_act = 177.52, T_lim = 210.32, drop_en = 1, -> result: message = DROP, drop_activated = 1	ok
testing: T_act = 111.10, T_lim = 154.15, drop_en = 1, -> result: message = DROP, drop_activated = 1	ok
testing: T_act = 138.18, T_lim = 182.91, drop_en = 1, -> result: message = DROP, drop_activated = 1	ok
testing: T_act = 202.01, T_lim = 246.19, drop_en = 1, -> result: message = DROP, drop_activated = 1	ok
testing: T_act = 181.48, T_lim = 253.53, drop_en = 1, -> result: message = DROP, drop_activated = 1	ok
testing: T_act = 91.80, T_lim = 240.41, drop_en = 1, -> result: message = DROP, drop_activated = 1	ok
testing: T_act = 46.95, T_lim = 116.01, drop_en = 1, -> result: message = DROP, drop_activated = 1	ok
testing: T_act = 225.76, T_lim = 232.56, drop_en = 1, -> result: message = DROP, drop_activated = 1	ok
testing: T_act = 194.32, T_lim = 201.00, drop_en = 1, -> result: message = DROP, drop_activated = 1	ok
testing: T_act = 1.26, T_lim = 202.63, drop_en = 1, -> result: message = DROP, drop_activated = 1	ok
testing: T_act = 32.76, T_lim = 98.43, drop_en = 1, -> result: message = DROP, drop_activated = 1	ok
testing: T_act = 192.62, T_lim = 237.53, drop_en = 1, -> result: message = DROP, drop_activated = 1	ok
testing: T_act = 234.34, T_lim = 241.80, drop_en = 1, -> result: message = DROP, drop_activated = 1	ok
testing: T_act = 155.13, T_lim = 209.90, drop_en = 1, -> result: message = DROP, drop_activated = 1	ok
testing: T_act = 33.56, T_lim = 86.99, drop_en = 1, -> result: message = DROP, drop_activated = 1	ok
testing: T_act = 131.08, T_lim = 230.83, drop_en = 1, -> result: message = DROP, drop_activated = 1	ok
testing: T_act = 140.43, T_lim = 211.82, drop_en = 1, -> result: message = DROP, drop_activated = 1	ok
testing: T_act = 57.48, T_lim = 205.53, drop_en = 1, -> result: message = DROP, drop_activated = 1	ok
testing: T_act = 48.43, T_lim = 48.55, drop_en = 1, -> result: message = DROP, drop_activated = 1	ok
testing: T_act = 220.70, T_lim = 251.88, drop_en = 1, -> result: message = DROP, drop_activated = 1	ok
testing: T_act = 21.68, T_lim = 180.95, drop_en = 1, -> result: message = DROP, drop_activated = 1	ok
testing: T_act = 158.01, T_lim = 197.48, drop_en = 1, -> result: message = DROP, drop_activated = 1	ok
testing: T_act = 161.99, T_lim = 243.55, drop_en = 1, -> result: message = DROP, drop_activated = 1	ok
testing: T_act = 18.16, T_lim = 71.26, drop_en = 1, -> result: message = DROP, drop_activated = 1	ok
testing: T_act = 152.56, T_lim = 169.60, drop_en = 1, -> result: message = DROP, drop_activated = 1	ok
testing: T_act = 252.73, T_lim = 255.06, drop_en = 1, -> result: message = DROP, drop_activated = 1	ok
testing: T_act = 105.48, T_lim = 158.86, drop_en = 1, -> result: message = DROP, drop_activated = 1	ok
testing: T_act = 93.50, T_lim = 195.99, drop_en = 1, -> result: message = DROP, drop_activated = 1	ok
testing: T_act = 9.30, T_lim = 200.70, drop_en = 1, -> result: message = DROP, drop_activated = 1	ok
testing: T_act = 71.76, T_lim = 248.46, drop_en = 1, -> result: message = DROP, drop_activated = 1	ok
testing: T_act = 152.98, T_lim = 205.49, drop_en = 1, -> result: message = DROP, drop_activated = 1	ok
testing: T_act = 45.13, T_lim = 70.68, drop_en = 1, -> result: message = DROP, drop_activated = 1	ok
testing: T_act = 56.81, T_lim = 105.30, drop_en = 1, -> result: message = DROP, drop_activated = 1	ok
testing: T_act = 198.87, T_lim = 239.84, drop_en = 1, -> result: message = DROP, drop_activated = 1	ok
testing: T_act = 9.45, T_lim = 199.99, drop_en = 1, -> result: message = DROP, drop_activated = 1	ok
testing: T_act = 223.06, T_lim = 254.05, drop_en = 1, -> result: message = DROP, drop_activated = 1	ok
testing: T_act = 62.89, T_lim = 177.86, drop_en = 1, -> result: message = DROP, drop_activated = 1	ok
testing: T_act = 176.70, T_lim = 250.19, drop_en = 1, -> result: message = DROP, drop_activated = 1	ok
testing: T_act = 53.48, T_lim = 240.37, drop_en = 1, -> result: message = DROP, drop_activated = 1	ok
testing: T_act = 84.09, T_lim = 153.09, drop_en = 1, -> result: message = DROP, drop_activated = 1	ok
testing: T_act = 10.40, T_lim = 30.38, drop_en = 1, -> result: message = DROP, drop_activated = 1	ok
testing: T_act = 214.15, T_lim = 244.78, drop_en = 1, -> result: message = DROP, drop_activated = 1	ok
testing: T_act = 113.85, T_lim = 222.53, drop_en = 1, -> result: message = DROP, drop_activated = 1	ok
testing: T_act = 126.77, T_lim = 185.22, drop_en = 1, -> result: message = DROP, drop_activated = 1	ok
testing: T_act = 188.35, T_lim = 192.35, drop_en = 1, -> result: message = DROP, drop_activated = 1	ok
testing: T_act = 194.67, T_lim = 201.60, drop_en = 1, -> result: message = DROP, drop_activated = 1	ok
testing: T_act = 97.35, T_lim = 168.59, drop_en = 1, -> result: message = DROP, drop_activated = 1	ok
testing: T_act = 76.11, T_lim = 115.18, drop_en = 1, -> result: message = DROP, drop_activated = 1	ok
testing: T_act = 216.54, T_lim = 239.42, drop_en = 1, -> result: message = DROP, drop_activated = 1	ok
testing: T_act = 160.91, T_lim = 182.13, drop_en = 1, -> result: message = DROP, drop_activated = 1	ok
testing: T_act = 188.21, T_lim = 227.25, drop_en = 1, -> result: message = DROP, drop_activated = 1	ok
testing: T_act = 53.12, T_lim = 243.16, drop_en = 1, -> result: message = DROP, drop_activated = 1	ok
testing: T_act = 185.23, T_lim = 193.66, drop_en = 1, -> result: message = DROP, drop_activated = 1	ok
testing: T_act = 1.35, T_lim = 33.61, drop_en = 1, -> result: message = DROP, drop_activated = 1	ok
testing: T_act = 140.12, T_lim = 193.08, drop_en = 1, -> result: message = DROP, drop_activated = 1	ok
testing: T_act = 202.45, T_lim = 203.74, drop_en = 1, -> result: message = DROP, drop_activated = 1	ok
testing: T_act = 197.26, T_lim = 203.13, drop_en = 1, -> result: message = DROP, drop_activated = 1	ok
testing: T_act = 7.44, T_lim = 186.20, drop_en = 1, -> result: message = DROP, drop_activated = 1	ok
testing: T_act = 178.86, T_lim = 194.07, drop_en = 1, -> result: message = DROP, drop_activated = 1	ok
testing: T_act = 182.25, T_lim = 237.15, drop_en = 1, -> result: message = DROP, drop_activated = 1	ok
testing: T_act = 165.81, T_lim = 226.87, drop_en = 1, -> result: message = DROP, drop_activated = 1	ok
testing: T_act = 196.63, T_lim = 244.55, drop_en = 1, -> result: message = DROP, drop_activated = 1	ok
testing: T_act = 122.41, T_lim = 184.77, drop_en = 1, -> result: message = DROP, drop_activated = 1	ok
testing: T_act = 9.28, T_lim = 124.15, drop_en = 1, -> result: message = DROP, drop_activated = 1	ok
testing: T_act = 11.18, T_lim = 80.94, drop_en = 1, -> result: message = DROP, drop_activated = 1	ok
testing: T_act = 164.84, T_lim = 184.38, drop_en = 1, -> result: message = DROP, drop_activated = 1	ok
testing: T_act = 82.70, T_lim = 200.40, drop_en = 1, -> result: message = DROP, drop_activated = 1	ok
testing: T_act = 98.23, T_lim = 153.79, drop_en = 1, -> result: message = DROP, drop_activated = 1	ok
testing: T_act = 160.09, T_lim = 229.34, drop_en = 1, -> result: message = DROP, drop_activated = 1	ok
testing: T_act = 54.65, T_lim = 98.88, drop_en = 1, -> result: message = DROP, drop_activated = 1	ok
testing: T_act = 71.03, T_lim = 84.45, drop_en = 1, -> result: message = DROP, drop_activated = 1	ok
testing: T_act = 208.81, T_lim = 230.89, drop_en = 1, -> result: message = DROP, drop_activated = 1	ok
testing: T_act = 26.93, T_lim = 56.58, drop_en = 1, -> result: message = DROP, drop_activated = 1	ok
testing: T_act = 211.58, T_lim = 253.63, drop_en = 1, -> result: message = DROP, drop_activated = 1	ok
testing: T_act = 8.45, T_lim = 26.60, drop_en = 1, -> result: message = DROP, drop_activated = 1	ok
testing: T_act = 177.75, T_lim = 215.58, drop_en = 1, -> result: message = DROP, drop_activated = 1	ok
testing: T_act = 143.24, T_lim = 195.20, drop_en = 1, -> result: message = DROP, drop_activated = 1	ok
testing: T_act = 103.50, T_lim = 202.13, drop_en = 1, -> result: message = DROP, drop_activated = 1	ok
testing: T_act = 123.66, T_lim = 217.95, drop_en = 1, -> result: message = DROP, drop_activated = 1	ok
testing: T_act = 109.67, T_lim = 243.06, drop_en = 1, -> result: message = DROP, drop_activated = 1	ok
testing: T_act = 118.24, T_lim = 176.78, drop_en = 1, -> result: message = DROP, drop_activated = 1	ok
testing: T_act = 79.09, T_lim = 124.61, drop_en = 1, -> result: message = DROP, drop_activated = 1	ok
testing: T_act = 204.75, T_lim = 245.21, drop_en = 1, -> result: message = DROP, drop_activated = 1	ok
testing: T_act = 190.61, T_lim = 241.61, drop_en = 1, -> result: message = DROP, drop_activated = 1	ok
testing: T_act = 57.39, T_lim = 71.00, drop_en = 1, -> result: message = DROP, drop_activated = 1	ok
testing: T_act = 53.20, T_lim = 93.04, drop_en = 1, -> result: message = DROP, drop_activated = 1	ok
testing: T_act = 140.70, T_lim = 229.97, drop_en = 1, -> result: message = DROP, drop_activated = 1	ok
testing: T_act = 232.89, T_lim = 243.78, drop_en = 1, -> result: message = DROP, drop_activated = 1	ok
testing: T_act = 157.88, T_lim = 251.63, drop_en = 1, -> result: message = DROP, drop_activated = 1	ok
testing: T_act = 92.12, T_lim = 197.25, drop_en = 1, -> result: message = DROP, drop_activated = 1	ok
testing: T_act = 2.59, T_lim = 224.39, drop_en = 1, -> result: message = DROP, drop_activated = 1	ok
testing: T_act = 237.07, T_lim = 248.83, drop_en = 1, -> result: message = DROP, drop_activated = 1	ok
testing: T_act = 79.41, T_lim = 175.43, drop_en = 1, -> result: message = DROP, drop_activated = 1	ok
testing: T_act = 235.90, T_lim = 248.08, drop_en = 1, -> result: message = DROP, drop_activated = 1	ok
testing: T_act = 135.50, T_lim = 152.15, drop_en = 1, -> result: message = DROP, drop_activated = 1	ok
testing: T_act = 144.50, T_lim = 175.97, drop_en = 1, -> result: message = DROP, drop_activated = 1	ok
testing: T_act = 75.88, T_lim = 214.10, drop_en = 1, -> result: message = DROP, drop_activated = 1	ok
testing: T_act = 251.59, T_lim = 254.91, drop_en = 1, -> result: message = DROP, drop_activated = 1	ok
testing: T_act = 169.65, T_lim = 211.29, drop_en = 1, -> result: message = DROP, drop_activated = 1	ok
testing: T_act = 189.48, T_lim = 193.94, drop_en = 1, -> result: message = DROP, drop_activated = 1	ok
testing: T_act = 106.87, T_lim = 128.95, drop_en = 1, -> result: message = DROP, drop_activated = 1	ok
testing: T_act = 142.86, T_lim = 183.52, drop_en = 1, -> result: message = DROP, drop_activated = 1	ok
testing: T_act = 87.09, T_lim = 158.50, drop_en = 1, -> result: message = DROP, drop_activated = 1	ok
testing: T_act = 159.17, T_lim = 190.43, drop_en = 1, -> result: message = DROP, drop_activated = 1	ok
testing: T_act = 189.07, T_lim = 227.29, drop_en = 1, -> result: message = DROP, drop_activated = 1	ok
testing: T_act = 192.66, T_lim = 231.16, drop_en = 1, -> result: message = DROP, drop_activated = 1	ok
testing: T_act = 84.60, T_lim = 219.37, drop_en = 1, -> result: message = DROP, drop_activated = 1	ok
