Baggage Drop - Verilog/tester/build/bin/test_baggage_drop_system/isim.log
ISim log file
Running: tester.exe -intstyle ise -tclbatch ..\..\..\scripts\console.tcl 
ISim P.20131013 (signature 0x7708f090)
WARNING: A WEBPACK license was found.
WARNING: Please use Xilinx License Configuration Manager to check out a full ISim license.
WARNING: ISim will run in Lite mode. Please refer to the ISim documentation for more information on the differences between the Lite and the Full version.
This is a Lite version of ISim.
Time resolution is 1 ps
# onerror resume
# wave add /
# run 10 ms
Simulator is doing circuit initialization process.
Finished circuit initialization process.
testing: S1 = 197, S2 = 222, S3 = 36, S4 = 150, T_lim = 6.89, drop_en = 1, -> result: message = DROP, drop_activated = 1	ok
testing: S1 = 79, S2 = 241, S3 = 0, S4 = 76, T_lim = 8.96, drop_en = 1, -> result: message = DROP, drop_activated = 1	ok
testing: S1 = 105, S2 = 202, S3 = 2, S4 = 137, T_lim = 8.21, drop_en = 1, -> result: message = DROP, drop_activated = 1	ok
testing: S1 = 0, S2 = 134, S3 = 0, S4 = 36, T_lim = 5.35, drop_en = 1, -> result: message = DROP, drop_activated = 1	ok
testing: S1 = 107, S2 = 0, S3 = 179, S4 = 195, T_lim = 10.31, drop_en = 1, -> result: message = DROP, drop_activated = 1	ok
testing: S1 = 0, S2 = 26, S3 = 0, S4 = 233, T_lim = 6.57, drop_en = 1, -> result: message = DROP, drop_activated = 1	ok
testing: S1 = 140, S2 = 200, S3 = 221, S4 = 0, T_lim = 9.77, drop_en = 1, -> result: message = DROP, drop_activated = 1	ok
testing: S1 = 212, S2 = 0, S3 = 112, S4 = 0, T_lim = 8.85, drop_en = 1, -> result: message = DROP, drop_activated = 1	ok
testing: S1 = 151, S2 = 0, S3 = 174, S4 = 0, T_lim = 11.18, drop_en = 1, -> result: message = DROP, drop_activated = 1	ok
testing: S1 = 187, S2 = 71, S3 = 234, S4 = 0, T_lim = 12.18, drop_en = 1, -> result: message = DROP, drop_activated = 1	ok
testing: S1 = 74, S2 = 0, S3 = 235, S4 = 0, T_lim = 8.87, drop_en = 1, -> result: message = DROP, drop_activated = 1	ok
testing: S1 = 190, S2 = 0, S3 = 28, S4 = 3, T_lim = 5.73, drop_en = 1, -> result: message = DROP, drop_activated = 1	ok
testing: S1 = 0, S2 = 34, S3 = 0, S4 = 174, T_lim = 7.65, drop_en = 1, -> result: message = DROP, drop_activated = 1	ok
testing: S1 = 194, S2 = 0, S3 = 36, S4 = 0, T_lim = 9.31, drop_en = 1, -> result: message = DROP, drop_activated = 1	ok
testing: S1 = 250, S2 = 192, S3 = 85, S4 = 63, T_lim = 9.73, drop_en = 1, -> result: message = DROP, drop_activated = 1	ok
testing: S1 = 0, S2 = 169, S3 = 99, S4 = 3, T_lim = 7.41, drop_en = 1, -> result: message = DROP, drop_activated = 1	ok
testing: S1 = 0, S2 = 160, S3 = 0, S4 = 43, T_lim = 8.34, drop_en = 1, -> result: message = DROP, drop_activated = 1	ok
testing: S1 = 12, S2 = 0, S3 = 223, S4 = 0, T_lim = 5.68, drop_en = 1, -> result: message = DROP, drop_activated = 1	ok
testing: S1 = 0, S2 = 87, S3 = 0, S4 = 105, T_lim = 9.77, drop_en = 1, -> result: message = DROP, drop_activated = 1	ok
testing: S1 = 0, S2 = 224, S3 = 0, S4 = 118, T_lim = 8.12, drop_en = 1, -> result: message = DROP, drop_activated = 1	ok
testing: S1 = 223, S2 = 72, S3 = 111, S4 = 237, T_lim = 10.93, drop_en = 1, -> result: message = DROP, drop_activated = 1	ok
testing: S1 = 192, S2 = 129, S3 = 138, S4 = 88, T_lim = 8.86, drop_en = 1, -> result: message = DROP, drop_activated = 1	ok
testing: S1 = 0, S2 = 103, S3 = 0, S4 = 7, T_lim = 8.20, drop_en = 1, -> result: message = DROP, drop_activated = 1	ok
testing: S1 = 0, S2 = 209, S3 = 0, S4 = 70, T_lim = 6.18, drop_en = 1, -> result: message = DROP, drop_activated = 1	ok
testing: S1 = 0, S2 = 69, S3 = 0, S4 = 4, T_lim = 3.46, drop_en = 1, -> result: message = DROP, drop_activated = 1	ok
testing: S1 = 91, S2 = 0, S3 = 108, S4 = 0, T_lim = 8.27, drop_en = 1, -> result: message = DROP, drop_activated = 1	ok
testing: S1 = 168, S2 = 196, S3 = 0, S4 = 19, T_lim = 8.57, drop_en = 1, -> result: message = DROP, drop_activated = 1	ok
testing: S1 = 199, S2 = 14, S3 = 255, S4 = 68, T_lim = 8.79, drop_en = 1, -> result: message = DROP, drop_activated = 1	ok
testing: S1 = 0, S2 = 110, S3 = 0, S4 = 172, T_lim = 8.32, drop_en = 1, -> result: message = DROP, drop_activated = 1	ok
testing: S1 = 218, S2 = 94, S3 = 79, S4 = 0, T_lim = 7.86, drop_en = 1, -> result: message = DROP, drop_activated = 1	ok
testing: S1 = 46, S2 = 0, S3 = 102, S4 = 0, T_lim = 8.86, drop_en = 1, -> result: message = DROP, drop_activated = 1	ok
testing: S1 = 0, S2 = 205, S3 = 0, S4 = 5, T_lim = 8.15, drop_en = 1, -> result: message = DROP, drop_activated = 1	ok
testing: S1 = 77, S2 = 119, S3 = 4, S4 = 71, T_lim = 6.97, drop_en = 1, -> result: message = DROP, drop_activated = 1	ok
testing: S1 = 38, S2 = 0, S3 = 106, S4 = 0, T_lim = 7.22, drop_en = 1, -> result: message = DROP, drop_activated = 1	ok
testing: S1 = 0, S2 = 207, S3 = 0, S4 = 138, T_lim = 8.68, drop_en = 1, -> result: message = DROP, drop_activated = 1	ok
testing: S1 = 115, S2 = 141, S3 = 46, S4 = 155, T_lim = 5.93, drop_en = 1, -> result: message = DROP, drop_activated = 1	ok
testing: S1 = 40, S2 = 201, S3 = 223, S4 = 0, T_lim = 8.75, drop_en = 1, -> result: message = DROP, drop_activated = 1	ok
testing: S1 = 0, S2 = 16, S3 = 15, S4 = 87, T_lim = 8.17, drop_en = 1, -> result: message = DROP, drop_activated = 1	ok
testing: S1 = 30, S2 = 57, S3 = 203, S4 = 143, T_lim = 6.49, drop_en = 1, -> result: message = DROP, drop_activated = 1	ok
testing: S1 = 0, S2 = 146, S3 = 0, S4 = 219, T_lim = 10.10, drop_en = 1, -> result: message = DROP, drop_activated = 1	ok
testing: S1 = 189, S2 = 171, S3 = 130, S4 = 0, T_lim = 7.48, drop_en = 1, -> result: message = DROP, drop_activated = 1	ok
testing: S1 = 125, S2 = 0, S3 = 71, S4 = 0, T_lim = 5.91, drop_en = 1, -> result: message = DROP, drop_activated = 1	ok
testing: S1 = 219, S2 = 217, S3 = 207, S4 = 0, T_lim = 8.93, drop_en = 1, -> result: message = DROP, drop_activated = 1	ok
testing: S1 = 126, S2 = 0, S3 = 113, S4 = 0, T_lim = 7.81, drop_en = 1, -> result: message = DROP, drop_activated = 1	ok
testing: S1 = 158, S2 = 0, S3 = 183, S4 = 0, T_lim = 11.60, drop_en = 1, -> result: message = DROP, drop_activated = 1	ok
testing: S1 = 141, S2 = 62, S3 = 187, S4 = 200, T_lim = 6.89, drop_en = 1, -> result: message = DROP, drop_activated = 1	ok
testing: S1 = 235, S2 = 96, S3 = 0, S4 = 195, T_lim = 9.80, drop_en = 1, -> result: message = DROP, drop_activated = 1	ok
testing: S1 = 187, S2 = 198, S3 = 236, S4 = 41, T_lim = 9.60, drop_en = 1, -> result: message = DROP, drop_activated = 1	ok
testing: S1 = 235, S2 = 30, S3 = 1, S4 = 84, T_lim = 6.89, drop_en = 1, -> result: message = DROP, drop_activated = 1	ok
testing: S1 = 225, S2 = 147, S3 = 189, S4 = 0, T_lim = 11.93, drop_en = 1, -> result: message = DROP, drop_activated = 1	ok
testing: S1 = 0, S2 = 162, S3 = 143, S4 = 125, T_lim = 9.99, drop_en = 1, -> result: message = DROP, drop_activated = 1	ok
testing: S1 = 186, S2 = 0, S3 = 141, S4 = 0, T_lim = 11.24, drop_en = 1, -> result: message = DROP, drop_activated = 1	ok
testing: S1 = 69, S2 = 55, S3 = 58, S4 = 238, T_lim = 9.57, drop_en = 1, -> result: message = DROP, drop_activated = 1	ok
testing: S1 = 254, S2 = 0, S3 = 142, S4 = 0, T_lim = 11.97, drop_en = 1, -> result: message = DROP, drop_activated = 1	ok
testing: S1 = 12, S2 = 14, S3 = 0, S4 = 101, T_lim = 8.48, drop_en = 1, -> result: message = DROP, drop_activated = 1	ok
testing: S1 = 109, S2 = 62, S3 = 116, S4 = 189, T_lim = 8.95, drop_en = 1, -> result: message = DROP, drop_activated = 1	ok
testing: S1 = 40, S2 = 108, S3 = 71, S4 = 0, T_lim = 6.36, drop_en = 1, -> result: message = DROP, drop_activated = 1	ok
testing: S1 = 1, S2 = 187, S3 = 226, S4 = 0, T_lim = 8.57, drop_en = 1, -> result: message = DROP, drop_activated = 1	ok
testing: S1 = 80, S2 = 113, S3 = 0, S4 = 211, T_lim = 9.61, drop_en = 1, -> result: message = DROP, drop_activated = 1	ok
testing: S1 = 235, S2 = 31, S3 = 0, S4 = 171, T_lim = 5.96, drop_en = 1, -> result: message = DROP, drop_activated = 1	ok
testing: S1 = 201, S2 = 0, S3 = 250, S4 = 0, T_lim = 11.50, drop_en = 1, -> result: message = DROP, drop_activated = 1	ok
testing: S1 = 202, S2 = 57, S3 = 140, S4 = 233, T_lim = 10.96, drop_en = 1, -> result: message = DROP, drop_activated = 1	ok
testing: S1 = 101, S2 = 135, S3 = 246, S4 = 218, T_lim = 10.47, drop_en = 1, -> result: message = DROP, drop_activated = 1	ok
testing: S1 = 192, S2 = 172, S3 = 177, S4 = 42, T_lim = 7.32, drop_en = 1, -> result: message = DROP, drop_activated = 1	ok
testing: S1 = 100, S2 = 36, S3 = 122, S4 = 43, T_lim = 6.41, drop_en = 1, -> result: message = DROP, drop_activated = 1	ok
testing: S1 = 72, S2 = 240, S3 = 14, S4 = 12, T_lim = 9.55, drop_en = 1, -> result: message = DROP, drop_activated = 1	ok
testing: S1 = 63, S2 = 0, S3 = 68, S4 = 0, T_lim = 6.74, drop_en = 1, -> result: message = DROP, drop_activated = 1	ok
testing: S1 = 165, S2 = 0, S3 = 175, S4 = 0, T_lim = 7.64, drop_en = 1, -> result: message = DROP, drop_activated = 1	ok
testing: S1 = 27, S2 = 177, S3 = 179, S4 = 193, T_lim = 10.86, drop_en = 1, -> result: message = DROP, drop_activated = 1	ok
testing: S1 = 95, S2 = 59, S3 = 197, S4 = 37, T_lim = 6.87, drop_en = 1, -> result: message = DROP, drop_activated = 1	ok
testing: S1 = 103, S2 = 203, S3 = 53, S4 = 223, T_lim = 6.65, drop_en = 1, -> result: message = DROP, drop_activated = 1	ok
testing: S1 = 3, S2 = 211, S3 = 0, S4 = 213, T_lim = 7.46, drop_en = 1, -> result: message = DROP, drop_activated = 1	ok
testing: S1 = 216, S2 = 0, S3 = 219, S4 = 0, T_lim = 9.23, drop_en = 1, -> result: message = DROP, drop_activated = 1	ok
testing: S1 = 0, S2 = 215, S3 = 0, S4 = 74, T_lim = 10.73, drop_en = 1, -> result: message = DROP, drop_activated = 1	ok
testing: S1 = 156, S2 = 168, S3 = 153, S4 = 0, T_lim = 7.21, drop_en = 1, -> result: message = DROP, drop_activated = 1	ok
testing: S1 = 0, S2 = 123, S3 = 0, S4 = 82, T_lim = 5.29, drop_en = 1, -> result: message = DROP, drop_activated = 1	ok
testing: S1 = 227, S2 = 156, S3 = 15, S4 = 192, T_lim = 9.69, drop_en = 1, -> result: message = DROP, drop_activated = 1	ok
testing: S1 = 169, S2 = 210, S3 = 0, S4 = 41, T_lim = 6.80, drop_en = 1, -> result: message = DROP, drop_activated = 1	ok
testing: S1 = 31, S2 = 36, S3 = 9, S4 = 61, T_lim = 6.84, drop_en = 1, -> result: message = DROP, drop_activated = 1	ok
testing: S1 = 0, S2 = 35, S3 = 0, S4 = 35, T_lim = 3.33, drop_en = 1, -> result: message = DROP, drop_activated = 1	ok
testing: S1 = 52, S2 = 245, S3 = 25, S4 = 60, T_lim = 5.65, drop_en = 1, -> result: message = DROP, drop_activated = 1	ok
testing: S1 = 0, S2 = 35, S3 = 85, S4 = 185, T_lim = 8.58, drop_en = 1, -> result: message = DROP, drop_activated = 1	ok
testing: S1 = 81, S2 = 40, S3 = 248, S4 = 144, T_lim = 5.83, drop_en = 1, -> result: message = DROP, drop_activated = 1	ok
testing: S1 = 130, S2 = 165, S3 = 71, S4 = 106, T_lim = 7.96, drop_en = 1, -> result: message = DROP, drop_activated = 1	ok
testing: S1 = 77, S2 = 0, S3 = 37, S4 = 87, T_lim = 6.48, drop_en = 1, -> result: message = DROP, drop_activated = 1	ok
testing: S1 = 8, S2 = 0, S3 = 164, S4 = 0, T_lim = 6.18, drop_en = 1, -> result: message = DROP, drop_activated = 1	ok
testing: S1 = 135, S2 = 0, S3 = 121, S4 = 135, T_lim = 9.24, drop_en = 1, -> result: message = DROP, drop_activated = 1	ok
testing: S1 = 103, S2 = 0, S3 = 75, S4 = 0, T_lim = 8.16, drop_en = 1, -> result: message = DROP, drop_activated = 1	ok
testing: S1 = 0, S2 = 155, S3 = 0, S4 = 188, T_lim = 10.95, drop_en = 1, -> result: message = DROP, drop_activated = 1	ok
testing: S1 = 250, S2 = 0, S3 = 194, S4 = 209, T_lim = 10.17, drop_en = 1, -> result: message = DROP, drop_activated = 1	ok
testing: S1 = 0, S2 = 28, S3 = 0, S4 = 228, T_lim = 5.92, drop_en = 1, -> result: message = DROP, drop_activated = 1	ok
testing: S1 = 195, S2 = 0, S3 = 64, S4 = 0, T_lim = 10.68, drop_en = 1, -> result: message = DROP, drop_activated = 1	ok
testing: S1 = 232, S2 = 0, S3 = 170, S4 = 0, T_lim = 7.11, drop_en = 1, -> result: message = DROP, drop_activated = 1	ok
testing: S1 = 4, S2 = 109, S3 = 0, S4 = 204, T_lim = 10.78, drop_en = 1, -> result: message = DROP, drop_activated = 1	ok
testing: S1 = 15, S2 = 117, S3 = 126, S4 = 143, T_lim = 6.48, drop_en = 1, -> result: message = DROP, drop_activated = 1	ok
testing: S1 = 0, S2 = 86, S3 = 0, S4 = 133, T_lim = 7.48, drop_en = 1, -> result: message = DROP, drop_activated = 1	ok
testing: S1 = 0, S2 = 241, S3 = 0, S4 = 183, T_lim = 11.50, drop_en = 1, -> result: message = DROP, drop_activated = 1	ok
testing: S1 = 0, S2 = 17, S3 = 0, S4 = 175, T_lim = 5.36, drop_en = 1, -> result: message = DROP, drop_activated = 1	ok
testing: S1 = 0, S2 = 23, S3 = 0, S4 = 49, T_lim = 6.68, drop_en = 1, -> result: message = DROP, drop_activated = 1	ok
testing: S1 = 0, S2 = 193, S3 = 0, S4 = 99, T_lim = 11.17, drop_en = 1, -> result: message = DROP, drop_activated = 1	ok
testing: S1 = 199, S2 = 0, S3 = 27, S4 = 0, T_lim = 10.78, drop_en = 1, -> result: message = DROP, drop_activated = 1	ok
testing: S1 = 0, S2 = 149, S3 = 0, S4 = 20, T_lim = 4.96, drop_en = 1, -> result: message = DROP, drop_activated = 1	ok
testing: S1 = 85, S2 = 0, S3 = 27, S4 = 0, T_lim = 6.28, drop_en = 1, -> result: message = DROP, drop_activated = 1	ok
testing: S1 = 208, S2 = 5, S3 = 0, S4 = 146, T_lim = 6.12, drop_en = 1, -> result: message = DROP, drop_activated = 1	ok
testing: S1 = 166, S2 = 104, S3 = 0, S4 = 213, T_lim = 10.17, drop_en = 1, -> result: message = DROP, drop_activated = 1	ok
testing: S1 = 227, S2 = 226, S3 = 21, S4 = 211, T_lim = 8.21, drop_en = 1, -> result: message = DROP, drop_activated = 1	ok
testing: S1 = 206, S2 = 118, S3 = 0, S4 = 118, T_lim = 9.50, drop_en = 1, -> result: message = DROP, drop_activated = 1	ok
testing: S1 = 0, S2 = 161, S3 = 0, S4 = 137, T_lim = 7.37, drop_en = 1, -> result: message = DROP, drop_activated = 1	ok
testing: S1 = 67, S2 = 10, S3 = 190, S4 = 128, T_lim = 9.70, drop_en = 1, -> result: message = DROP, drop_activated = 1	ok
testing: S1 = 158, S2 = 0, S3 = 33, S4 = 0, T_lim = 7.49, drop_en = 1, -> result: message = DROP, drop_activated = 1	ok
testing: S1 = 248, S2 = 0, S3 = 115, S4 = 0, T_lim = 7.96, drop_en = 1, -> result: message = DROP, drop_activated = 1	ok
testing: S1 = 177, S2 = 0, S3 = 103, S4 = 0, T_lim = 7.30, drop_en = 1, -> result: message = DROP, drop_activated = 1	ok
testing: S1 = 98, S2 = 146, S3 = 234, S4 = 86, T_lim = 6.90, drop_en = 1, -> result: message = DROP, drop_activated = 1	ok
testing: S1 = 105, S2 = 0, S3 = 159, S4 = 0, T_lim = 7.23, drop_en = 1, -> result: message = DROP, drop_activated = 1	ok
testing: S1 = 0, S2 = 200, S3 = 218, S4 = 35, T_lim = 9.81, drop_en = 1, -> result: message = DROP, drop_activated = 1	ok
testing: S1 = 249, S2 = 219, S3 = 85, S4 = 0, T_lim = 8.66, drop_en = 1, -> result: message = DROP, drop_activated = 1	ok
testing: S1 = 128, S2 = 136, S3 = 138, S4 = 43, T_lim = 9.12, drop_en = 1, -> result: message = DROP, drop_activated = 1	ok
testing: S1 = 165, S2 = 0, S3 = 174, S4 = 251, T_lim = 10.36, drop_en = 1, -> result: message = DROP, drop_activated = 1	ok
testing: S1 = 244, S2 = 0, S3 = 115, S4 = 0, T_lim = 9.99, drop_en = 1, -> result: message = DROP, drop_activated = 1	ok
testing: S1 = 92, S2 = 137, S3 = 212, S4 = 43, T_lim = 10.14, drop_en = 1, -> result: message = DROP, drop_activated = 1	ok
testing: S1 = 0, S2 = 173, S3 = 0, S4 = 55, T_lim = 9.30, drop_en = 1, -> result: message = DROP, drop_activated = 1	ok
testing: S1 = 131, S2 = 0, S3 = 246, S4 = 117, T_lim = 10.59, drop_en = 1, -> result: message = DROP, drop_activated = 1	ok
testing: S1 = 0, S2 = 53, S3 = 0, S4 = 102, T_lim = 8.23, drop_en = 1, -> result: message = DROP, drop_activated = 1	ok
testing: S1 = 161, S2 = 250, S3 = 124, S4 = 147, T_lim = 10.79, drop_en = 1, -> result: message = DROP, drop_activated = 1	ok
testing: S1 = 251, S2 = 0, S3 = 74, S4 = 0, T_lim = 9.20, drop_en = 1, -> result: message = DROP, drop_activated = 1	ok
testing: S1 = 55, S2 = 0, S3 = 233, S4 = 0, T_lim = 7.18, drop_en = 1, -> result: message = DROP, drop_activated = 1	ok
testing: S1 = 126, S2 = 0, S3 = 116, S4 = 0, T_lim = 8.57, drop_en = 1, -> result: message = DROP, drop_activated = 1	ok
testing: S1 = 14, S2 = 194, S3 = 25, S4 = 42, T_lim = 5.29, drop_en = 1, -> result: message = DROP, drop_activated = 1	ok
testing: S1 = 195, S2 = 0, S3 = 142, S4 = 0, T_lim = 6.48, drop_en = 1, -> result: message =  HOT, drop_activated = 0	ok
testing: S1 = 0, S2 = 97, S3 = 89, S4 = 195, T_lim = 7.92, drop_en = 1, -> result: message = DROP, drop_activated = 1	ok
testing: S1 = 224, S2 = 164, S3 = 190, S4 = 86, T_lim = 6.55, drop_en = 1, -> result: message = DROP, drop_activated = 1	ok
testing: S1 = 193, S2 = 0, S3 = 157, S4 = 0, T_lim = 8.79, drop_en = 1, -> result: message = DROP, drop_activated = 1	ok
testing: S1 = 92, S2 = 0, S3 = 87, S4 = 0, T_lim = 8.55, drop_en = 1, -> result: message = DROP, drop_activated = 1	ok
testing: S1 = 112, S2 = 104, S3 = 160, S4 = 0, T_lim = 5.85, drop_en = 1, -> result: message = DROP, drop_activated = 1	ok
testing: S1 = 0, S2 = 126, S3 = 0, S4 = 190, T_lim = 9.68, drop_en = 1, -> result: message = DROP, drop_activated = 1	ok
testing: S1 = 0, S2 = 67, S3 = 0, S4 = 216, T_lim = 7.20, drop_en = 1, -> result: message = DROP, drop_activated = 1	ok
testing: S1 = 52, S2 = 251, S3 = 182, S4 = 0, T_lim = 6.74, drop_en = 1, -> result: message = DROP, drop_activated = 1	ok
testing: S1 = 20, S2 = 166, S3 = 177, S4 = 57, T_lim = 5.59, drop_en = 1, -> result: message = DROP, drop_activated = 1	ok
testing: S1 = 206, S2 = 0, S3 = 146, S4 = 0, T_lim = 6.85, drop_en = 1, -> result: message = DROP, drop_activated = 1	ok
testing: S1 = 0, S2 = 6, S3 = 149, S4 = 103, T_lim = 7.84, drop_en = 1, -> result: message = DROP, drop_activated = 1	ok
testing: S1 = 89, S2 = 191, S3 = 175, S4 = 95, T_lim = 8.80, drop_en = 1, -> result: message = DROP, drop_activated = 1	ok
testing: S1 = 88, S2 = 0, S3 = 166, S4 = 0, T_lim = 10.58, drop_en = 1, -> result: message = DROP, drop_activated = 1	ok
testing: S1 = 0, S2 = 233, S3 = 0, S4 = 140, T_lim = 11.57, drop_en = 1, -> result: message = DROP, drop_activated = 1	ok
testing: S1 = 0, S2 = 11, S3 = 9, S4 = 20, T_lim = 3.90, drop_en = 1, -> result: message = DROP, drop_activated = 1	ok
testing: S1 = 71, S2 = 0, S3 = 74, S4 = 10, T_lim = 6.42, drop_en = 1, -> result: message = DROP, drop_activated = 1	ok
testing: S1 = 41, S2 = 0, S3 = 253, S4 = 71, T_lim = 10.45, drop_en = 1, -> result: message = DROP, drop_activated = 1	ok
testing: S1 = 189, S2 = 0, S3 = 200, S4 = 0, T_lim = 9.96, drop_en = 1, -> result: message = DROP, drop_activated = 1	ok
testing: S1 = 135, S2 = 69, S3 = 124, S4 = 86, T_lim = 6.68, drop_en = 1, -> result: message = DROP, drop_activated = 1	ok
testing: S1 = 0, S2 = 141, S3 = 0, S4 = 17, T_lim = 6.98, drop_en = 1, -> result: message = DROP, drop_activated = 1	ok
testing: S1 = 227, S2 = 171, S3 = 75, S4 = 83, T_lim = 6.48, drop_en = 1, -> result: message = DROP, drop_activated = 1	ok
testing: S1 = 36, S2 = 224, S3 = 0, S4 = 251, T_lim = 12.67, drop_en = 1, -> result: message = DROP, drop_activated = 1	ok
testing: S1 = 0, S2 = 50, S3 = 0, S4 = 27, T_lim = 5.47, drop_en = 1, -> result: message = DROP, drop_activated = 1	ok
testing: S1 = 0, S2 = 121, S3 = 0, S4 = 161, T_lim = 8.45, drop_en = 1, -> result: message = DROP, drop_activated = 1	ok
testing: S1 = 181, S2 = 228, S3 = 221, S4 = 0, T_lim = 7.72, drop_en = 1, -> result: message = DROP, drop_activated = 1	ok
testing: S1 = 177, S2 = 0, S3 = 22, S4 = 0, T_lim = 7.48, drop_en = 1, -> result: message = DROP, drop_activated = 1	ok
testing: S1 = 18, S2 = 0, S3 = 76, S4 = 0, T_lim = 7.32, drop_en = 1, -> result: message = DROP, drop_activated = 1	ok
testing: S1 = 215, S2 = 188, S3 = 195, S4 = 229, T_lim = 12.66, drop_en = 1, -> result: message = DROP, drop_activated = 1	ok
testing: S1 = 190, S2 = 201, S3 = 58, S4 = 168, T_lim = 7.87, drop_en = 1, -> result: message = DROP, drop_activated = 1	ok
testing: S1 = 90, S2 = 0, S3 = 242, S4 = 126, T_lim = 10.99, drop_en = 1, -> result: message = DROP, drop_activated = 1	ok
testing: S1 = 82, S2 = 108, S3 = 101, S4 = 0, T_lim = 9.42, drop_en = 1, -> result: message = DROP, drop_activated = 1	ok
testing: S1 = 207, S2 = 0, S3 = 188, S4 = 186, T_lim = 7.62, drop_en = 1, -> result: message = DROP, drop_activated = 1	ok
testing: S1 = 110, S2 = 0, S3 = 118, S4 = 0, T_lim = 8.40, drop_en = 1, -> result: message = DROP, drop_activated = 1	ok
testing: S1 = 249, S2 = 140, S3 = 21, S4 = 205, T_lim = 10.58, drop_en = 1, -> result: message = DROP, drop_activated = 1	ok
testing: S1 = 0, S2 = 191, S3 = 0, S4 = 112, T_lim = 8.79, drop_en = 1, -> result: message = DROP, drop_activated = 1	ok
testing: S1 = 61, S2 = 0, S3 = 31, S4 = 0, T_lim = 4.43, drop_en = 1, -> result: message = DROP, drop_activated = 1	ok
testing: S1 = 0, S2 = 196, S3 = 0, S4 = 74, T_lim = 9.48, drop_en = 1, -> result: message = DROP, drop_activated = 1	ok
testing: S1 = 0, S2 = 116, S3 = 0, S4 = 88, T_lim = 7.83, drop_en = 1, -> result: message = DROP, drop_activated = 1	ok
testing: S1 = 26, S2 = 22, S3 = 130, S4 = 53, T_lim = 7.85, drop_en = 1, -> result: message = DROP, drop_activated = 1	ok
testing: S1 = 153, S2 = 0, S3 = 151, S4 = 0, T_lim = 7.60, drop_en = 1, -> result: message = DROP, drop_activated = 1	ok
testing: S1 = 54, S2 = 180, S3 = 51, S4 = 228, T_lim = 8.46, drop_en = 1, -> result: message = DROP, drop_activated = 1	ok
testing: S1 = 92, S2 = 62, S3 = 0, S4 = 22, T_lim = 7.32, drop_en = 1, -> result: message = DROP, drop_activated = 1	ok
testing: S1 = 0, S2 = 133, S3 = 0, S4 = 186, T_lim = 11.68, drop_en = 1, -> result: message = DROP, drop_activated = 1	ok
testing: S1 = 0, S2 = 112, S3 = 207, S4 = 4, T_lim = 3.97, drop_en = 1, -> result: message = DROP, drop_activated = 1	ok
testing: S1 = 0, S2 = 34, S3 = 0, S4 = 200, T_lim = 8.73, drop_en = 1, -> result: message = DROP, drop_activated = 1	ok
testing: S1 = 53, S2 = 0, S3 = 196, S4 = 0, T_lim = 5.95, drop_en = 1, -> result: message = DROP, drop_activated = 1	ok
testing: S1 = 0, S2 = 148, S3 = 0, S4 = 186, T_lim = 8.30, drop_en = 1, -> result: message = DROP, drop_activated = 1	ok
testing: S1 = 0, S2 = 26, S3 = 66, S4 = 218, T_lim = 6.31, drop_en = 1, -> result: message = DROP, drop_activated = 1	ok
testing: S1 = 237, S2 = 177, S3 = 88, S4 = 10, T_lim = 7.92, drop_en = 1, -> result: message = DROP, drop_activated = 1	ok
testing: S1 = 0, S2 = 204, S3 = 0, S4 = 168, T_lim = 7.30, drop_en = 1, -> result: message = DROP, drop_activated = 1	ok
testing: S1 = 0, S2 = 77, S3 = 250, S4 = 234, T_lim = 6.50, drop_en = 1, -> result: message = DROP, drop_activated = 1	ok
testing: S1 = 1, S2 = 0, S3 = 158, S4 = 249, T_lim = 5.75, drop_en = 1, -> result: message = DROP, drop_activated = 1	ok
testing: S1 = 0, S2 = 5, S3 = 0, S4 = 72, T_lim = 7.73, drop_en = 1, -> result: message = DROP, drop_activated = 1	ok
testing: S1 = 223, S2 = 244, S3 = 176, S4 = 113, T_lim = 11.29, drop_en = 1, -> result: message = DROP, drop_activated = 1	ok
testing: S1 = 101, S2 = 45, S3 = 0, S4 = 252, T_lim = 7.22, drop_en = 1, -> result: message = DROP, drop_activated = 1	ok
testing: S1 = 28, S2 = 5, S3 = 16, S4 = 48, T_lim = 2.82, drop_en = 1, -> result: message = DROP, drop_activated = 1	ok
testing: S1 = 148, S2 = 0, S3 = 173, S4 = 0, T_lim = 8.73, drop_en = 1, -> result: message = DROP, drop_activated = 1	ok
testing: S1 = 28, S2 = 171, S3 = 0, S4 = 163, T_lim = 6.81, drop_en = 1, -> result: message = DROP, drop_activated = 1	ok
testing: S1 = 226, S2 = 194, S3 = 218, S4 = 102, T_lim = 10.34, drop_en = 1, -> result: message = DROP, drop_activated = 1	ok
testing: S1 = 235, S2 = 34, S3 = 25, S4 = 161, T_lim = 9.42, drop_en = 1, -> result: message = DROP, drop_activated = 1	ok
testing: S1 = 0, S2 = 146, S3 = 0, S4 = 38, T_lim = 5.57, drop_en = 1, -> result: message = DROP, drop_activated = 1	ok
testing: S1 = 0, S2 = 74, S3 = 0, S4 = 146, T_lim = 6.98, drop_en = 1, -> result: message = DROP, drop_activated = 1	ok
testing: S1 = 247, S2 = 80, S3 = 0, S4 = 201, T_lim = 9.11, drop_en = 1, -> result: message = DROP, drop_activated = 1	ok
testing: S1 = 208, S2 = 0, S3 = 127, S4 = 0, T_lim = 6.68, drop_en = 1, -> result: message = DROP, drop_activated = 1	ok
testing: S1 = 113, S2 = 194, S3 = 200, S4 = 152, T_lim = 9.37, drop_en = 1, -> result: message = DROP, drop_activated = 1	ok
testing: S1 = 0, S2 = 142, S3 = 0, S4 = 68, T_lim = 6.72, drop_en = 1, -> result: message = DROP, drop_activated = 1	ok
testing: S1 = 112, S2 = 196, S3 = 73, S4 = 143, T_lim = 7.96, drop_en = 1, -> result: message = DROP, drop_activated = 1	ok
testing: S1 = 221, S2 = 0, S3 = 68, S4 = 0, T_lim = 8.59, drop_en = 1, -> result: message = DROP, drop_activated = 1	ok
testing: S1 = 0, S2 = 115, S3 = 0, S4 = 23, T_lim = 7.42, drop_en = 1, -> result: message = DROP, drop_activated = 1	ok
testing: S1 = 61, S2 = 0, S3 = 17, S4 = 0, T_lim = 3.98, drop_en = 1, -> result: message = DROP, drop_activated = 1	ok
testing: S1 = 252, S2 = 236, S3 = 0, S4 = 65, T_lim = 7.43, drop_en = 1, -> result: message = DROP, drop_activated = 1	ok
testing: S1 = 12, S2 = 86, S3 = 0, S4 = 219, T_lim = 8.47, drop_en = 1, -> result: message = DROP, drop_activated = 1	ok
testing: S1 = 205, S2 = 145, S3 = 26, S4 = 243, T_lim = 7.71, drop_en = 1, -> result: message = DROP, drop_activated = 1	ok
testing: S1 = 39, S2 = 0, S3 = 30, S4 = 0, T_lim = 5.90, drop_en = 1, -> result: message = DROP, drop_activated = 1	ok
testing: S1 = 28, S2 = 0, S3 = 73, S4 = 172, T_lim = 7.49, drop_en = 1, -> result: message = DROP, drop_activated = 1	ok
testing: S1 = 126, S2 = 141, S3 = 161, S4 = 154, T_lim = 6.69, drop_en = 1, -> result: message = DROP, drop_activated = 1	ok
testing: S1 = 232, S2 = 0, S3 = 203, S4 = 0, T_lim = 9.87, drop_en = 1, -> result: message = DROP, drop_activated = 1	ok
testing: S1 = 233, S2 = 0, S3 = 178, S4 = 0, T_lim = 10.24, drop_en = 1, -> result: message = DROP, drop_activated = 1	ok
